*InvoiceNo,*Customer,*InvoiceDate,*DueDate,Terms,Location,Memo,Item(Product/Service),ItemDescription,ItemQuantity,ItemRate,*ItemAmount,*ItemTaxCode,ItemTaxAmount,Currency
4003,Foxgloves,23/11/2019,08/12/2019,Net 15,,,Flowers & Fillers:Ranunculus,Agrogana Coral 40 cm 10 st/bu ,1,14.5,14.5,GST,0.725,CAD
4003,Foxgloves,23/11/2019,08/12/2019,Net 15,,,Flowers & Fillers:Ranunculus,Agrogana Orange 40 cm 10 st/bu ,1,14.5,14.5,GST,0.725,CAD
4003,Foxgloves,23/11/2019,08/12/2019,Net 15,,,Flowers & Fillers:Ranunculus,Agrogana Purple 40 cm 10 st/bu ,1,14.5,14.5,GST,0.725,CAD
4003,Foxgloves,23/11/2019,08/12/2019,Net 15,,,Flowers & Fillers:Snapdragon,Agrogana White. 40 cm 10 st/bu ,3,13.5,40.5,GST,2.025,CAD
4003,Foxgloves,23/11/2019,08/12/2019,Net 15,,,Flowers & Fillers:Ranunculus,Agrogana Yellow 40 cm 10 st/bu ,1,14.5,14.5,GST,0.725,CAD
4003,Foxgloves,23/11/2019,08/12/2019,Net 15,,,Flowers & Fillers:Snapdragon,Bazzani Red  10 st/bu Perfection,1,9.85,9.85,GST,0.4925,CAD
4003,Foxgloves,23/11/2019,08/12/2019,Net 15,,,Roses:Roses,Confidential 60 cm 25 st/bu ,1,33.75,33.75,GST,1.6875,CAD
4003,Foxgloves,23/11/2019,08/12/2019,Net 15,,,Roses:Roses,Explorer 60 cm 25 st/bu ,1,37.5,37.5,GST,1.875,CAD
4003,Foxgloves,23/11/2019,08/12/2019,Net 15,,,Roses:Roses,Faith 50 cm 25 st/bu ,1,33.75,33.75,GST,1.6875,CAD
4003,Foxgloves,23/11/2019,08/12/2019,Net 15,,,Roses:Roses,Gotcha 60 cm 25 st/bu ,1,33.75,33.75,GST,1.6875,CAD
4003,Foxgloves,23/11/2019,08/12/2019,Net 15,,,Flowers & Fillers:Stock,James Hot Pink 70 cm 10 st/bu ,1,11.75,11.75,GST,0.5875,CAD
4003,Foxgloves,23/11/2019,08/12/2019,Net 15,,,Flowers & Fillers:Stock,James Purple 70 cm 10 st/bu ,1,11.75,11.75,GST,0.5875,CAD
4003,Foxgloves,23/11/2019,08/12/2019,Net 15,,,Flowers & Fillers:Hypericum,Magical Peach 70 cm 10 st/bu ,1,12.5,12.5,GST,0.625,CAD
4003,Foxgloves,23/11/2019,08/12/2019,Net 15,,,Flowers & Fillers:Snapdragon,Pink  10 st/bu Perfection,1,9.8,9.8,GST,0.49,CAD
4003,Foxgloves,23/11/2019,08/12/2019,Net 15,,,Roses:Roses,Playa Blanca  60 cm 25 st/bu ,1,50,50,GST,2.5,CAD
4003,Foxgloves,23/11/2019,08/12/2019,Net 15,,,Roses:Spray Roses,Sahara Sensation 60 cm 10 st/bu ,1,15.5,15.5,GST,0.775,CAD
4003,Foxgloves,23/11/2019,08/12/2019,Net 15,,,Roses:Spray Roses,Somerset 50 cm 10 st/bu ,1,15.5,15.5,GST,0.775,CAD
4003,Foxgloves,23/11/2019,08/12/2019,Net 15,,,Flowers & Fillers:Snapdragon,White  10 st/bu Perfection,1,13.5,13.5,GST,0.675,CAD
