*InvoiceNo,*Customer,*InvoiceDate,*DueDate,Terms,Location,Memo,Item(Product/Service),ItemDescription,ItemQuantity,ItemRate,*ItemAmount,*ItemTaxCode,ItemTaxAmount,Currency
4003,Garden Party Team,23/11/2019,08/12/2019,Net 15,,,Flowers & Fillers:Ranunculus,Agrogana Light Pink 40 cm 10 st/bu ,1,19.5,19.5,GST,0.975,CAD
4003,Garden Party Team,23/11/2019,08/12/2019,Net 15,,,Flowers & Fillers:Ranunculus,Agrogana Light Pink 40 cm 10 st/bu ,1,19.5,19.5,GST,0.975,CAD
4003,Garden Party Team,23/11/2019,08/12/2019,Net 15,,,Flowers & Fillers:Ranunculus,Agrogana Purple 40 cm 10 st/bu ,1,19.5,19.5,GST,0.975,CAD
4003,Garden Party Team,23/11/2019,08/12/2019,Net 15,,,Flowers & Fillers:Ranunculus,Agrogana Purple 40 cm 10 st/bu ,1,19.5,19.5,GST,0.975,CAD
4003,Garden Party Team,23/11/2019,08/12/2019,Net 15,,,Flowers & Fillers:Ranunculus,Agrogana Red 40 cm 10 st/bu ,4,19.5,78,GST,3.9,CAD
4003,Garden Party Team,23/11/2019,08/12/2019,Net 15,,,Flowers & Fillers:Ranunculus,Agrogana White 40 cm 10 st/bu ,2,19.5,39,GST,1.95,CAD
4003,Garden Party Team,23/11/2019,08/12/2019,Net 15,,,Roses:Roses,Explorer 60 cm 25 st/bu ,3,33.75,101.25,GST,5.0625,CAD
4003,Garden Party Team,23/11/2019,08/12/2019,Net 15,,,Roses:Roses,Free Spirit 50 cm 25 st/bu ,1,33.75,33.75,GST,1.6875,CAD
4003,Garden Party Team,23/11/2019,08/12/2019,Net 15,,,Roses:Roses,Freedom 60 cm 25 st/bu ,3,33.75,101.25,GST,5.0625,CAD
4003,Garden Party Team,23/11/2019,08/12/2019,Net 15,,,Flowers & Fillers:Stock,James Peach 70 cm 10 st/bu ,2,11.75,23.5,GST,1.175,CAD
4003,Garden Party Team,23/11/2019,08/12/2019,Net 15,,,Roses:Roses,Kahala  60 cm 25 st/bu ,1,33.75,33.75,GST,1.6875,CAD
4003,Garden Party Team,23/11/2019,08/12/2019,Net 15,,,Flowers & Fillers:Leucadendrum,Leucadendrum 65 cm 10 st/bu ,1,8.75,8.75,GST,0.4375,CAD
4003,Garden Party Team,23/11/2019,08/12/2019,Net 15,,,Roses:Roses,Shimmer 50 cm 25 st/bu ,1,33.75,33.75,GST,1.6875,CAD
