*InvoiceNo,*Customer,*InvoiceDate,*DueDate,Terms,Location,Memo,Item(Product/Service),ItemDescription,ItemQuantity,ItemRate,*ItemAmount,*ItemTaxCode,ItemTaxAmount,Currency
4003,Maple Ridge Florist,23/11/2019,08/12/2019,Net 15,,,Roses:Roses,Confidential 60 cm 25 st/bu ,1,33.75,33.75,GST,1.6875,CAD
4003,Maple Ridge Florist,23/11/2019,08/12/2019,Net 15,,,Roses:Roses,Free Spirit 50 cm 25 st/bu ,2,33.75,67.5,GST,3.375,CAD
4003,Maple Ridge Florist,23/11/2019,08/12/2019,Net 15,,,Roses:Roses,Freedom 60 cm 25 st/bu ,2,33.75,67.5,GST,3.375,CAD
4003,Maple Ridge Florist,23/11/2019,08/12/2019,Net 15,,,Roses:Roses,Hot Explorer 60 cm 25 st/bu ,1,33.75,33.75,GST,1.6875,CAD
4003,Maple Ridge Florist,23/11/2019,08/12/2019,Net 15,,,Roses:Roses,Mondial 60 cm 25 st/bu ,1,33.75,33.75,GST,1.6875,CAD
4003,Maple Ridge Florist,23/11/2019,08/12/2019,Net 15,,,Roses:Roses,Mondial 60 cm 25 st/bu ,1,33.75,33.75,GST,1.6875,CAD
