4006	Angela & Gabriels	2019-12-16	2019-12-31	Net 15			Flowers & Fillers:Hydrangea Mini Green	Green Apple 60 cm 1 st/bu Select	12	3.10	37.20	GST	1.8600	CAD
4006	Angela & Gabriels	2019-12-16	2019-12-31	Net 15			Flowers & Fillers:Hydrangea Mini Green	Green Apple 60 cm 1 st/bu Select	12	3.10	37.20	GST	1.8600	CAD
4006	Angela & Gabriels	2019-12-16	2019-12-31	Net 15			Flowers & Fillers:Hydrangea Mini Green	Wicked 60 cm 1 st/bu Premiun	12	3.10	37.20	GST	1.8600	CAD
4006	Angela & Gabriels	2019-12-16	2019-12-31	Net 15			Flowers & Fillers:Hydrangea Mini Green	Wicked 60 cm 1 st/bu Premiun	12	3.10	37.20	GST	1.8600	CAD
4006	Angela & Gabriels	2019-12-16	2019-12-31	Net 15			Roses:Roses	Explorer 70 cm 25 st/bu 	4	36.25	145.00	GST	7.2500	CAD
4006	Angela & Gabriels	2019-12-16	2019-12-31	Net 15			Roses:Roses	Explorer 70 cm 25 st/bu 	1	36.25	36.25	GST	1.8125	CAD
4006	Angela & Gabriels	2019-12-16	2019-12-31	Net 15			Roses:Roses	Gotcha 70 cm 25 st/bu 	2	36.25	72.50	GST	3.6250	CAD
4006	Angela & Gabriels	2019-12-16	2019-12-31	Net 15			Roses:Roses	Gotcha 70 cm 25 st/bu 	1	36.25	36.25	GST	1.8125	CAD
4006	Angela & Gabriels	2019-12-16	2019-12-31	Net 15			Roses:Roses	Mondial 70 cm 25 st/bu 	3	36.25	108.75	GST	5.4375	CAD
4006	Angela & Gabriels	2019-12-16	2019-12-31	Net 15			Roses:Roses	Mondial 70 cm 25 st/bu 	1	36.25	36.25	GST	1.8125	CAD
4006	Angela & Gabriels	2019-12-16	2019-12-31	Net 15			Roses:Roses	Moody Blues 70 cm 25 st/bu 	1	36.25	36.25	GST	1.8125	CAD
4006	Angela & Gabriels	2019-12-16	2019-12-31	Net 15			Roses:Roses	Moody Blues 70 cm 25 st/bu 	1	36.25	36.25	GST	1.8125	CAD
4006	Angela & Gabriels	2019-12-16	2019-12-31	Net 15			Roses:Roses	Pink Mondial 70 cm 25 st/bu 	1	36.25	36.25	GST	1.8125	CAD
4006	Angela & Gabriels	2019-12-16	2019-12-31	Net 15			Roses:Roses	Pink Mondial 70 cm 25 st/bu 	2	36.25	72.50	GST	3.6250	CAD
4006	Angela & Gabriels	2019-12-16	2019-12-31	Net 15			Roses:Roses	Wasabi 50 cm 25 st/bu 	1	31.25	31.25	GST	1.5625	CAD
4006	Angela & Gabriels	2019-12-16	2019-12-31	Net 15			Roses:Roses	Wasabi 50 cm 25 st/bu 	5	31.25	156.25	GST	7.8125	CAD
4006	Angela & Gabriels	2019-12-16	2019-12-31	Net 15			Roses:Roses	Wasabi 60 cm 25 st/bu 	4	33.75	135.00	GST	6.7500	CAD
4006	Balconi	2019-12-16	2019-12-31	Net 15			Flowers & Fillers:Hypericum	Magical Triumph 70 cm 10 st/bu 	5	12.50	62.50	GST	3.1250	CAD
4006	Balconi	2019-12-16	2019-12-31	Net 15			Flowers & Fillers:Snapdragon	White. 50 cm 10 st/bu Perfection	3	12.50	37.50	GST	1.8750	CAD
4006	Balconi	2019-12-16	2019-12-31	Net 15			Flowers & Fillers:Stock	James White 70 cm 10 st/bu 	2	11.75	23.50	GST	1.1750	CAD
4006	Balconi	2019-12-16	2019-12-31	Net 15			Roses:Roses	Freedom 60 cm 25 st/bu 	1	37.50	37.50	GST	1.8750	CAD
4006	Balconi	2019-12-16	2019-12-31	Net 15			Roses:Roses	Playa Blanca  60 cm 25 st/bu 	1	46.25	46.25	GST	2.3125	CAD
4006	Balconi	2019-12-16	2019-12-31	Net 15			Roses:Spray Roses	Rubicon 50 cm 10 st/bu 	2	21.00	42.00	GST	2.1000	CAD
4006	Brownies Florist	2019-12-16	2019-12-31	Net 15			\N	Dusty Miller 50 cm 10 st/bu 	1	16.50	16.50	GST	0.8250	CAD
4006	Brownies Florist	2019-12-16	2019-12-31	Net 15			Carnations:Carnation	Amos 60 cm 25 st/bu Standard	3	13.00	39.00	GST	1.9500	CAD
4006	Brownies Florist	2019-12-16	2019-12-31	Net 15			Carnations:Carnation	Moonlight 60 cm 25 st/bu Standard	2	11.00	22.00	GST	1.1000	CAD
4006	Brownies Florist	2019-12-16	2019-12-31	Net 15			Carnations:Carnation	Zurigo 60 cm 25 st/bu Standard	1	13.00	13.00	GST	0.6500	CAD
4006	Brownies Florist	2019-12-16	2019-12-31	Net 15			Carnations:Mini Carnation	Aragon 50 cm 10 st/bu Select	5	5.30	26.50	GST	1.3250	CAD
4006	Brownies Florist	2019-12-16	2019-12-31	Net 15			Carnations:Mini Carnation	Chateau 50 cm 10 st/bu Select	1	5.30	5.30	GST	0.2650	CAD
4006	Brownies Florist	2019-12-16	2019-12-31	Net 15			Carnations:Mini Carnation	Ibis 60 cm 10 st/bu Fancy	2	5.30	10.60	GST	0.5300	CAD
4006	Brownies Florist	2019-12-16	2019-12-31	Net 15			Flowers & Fillers:Gypsophilia 500gr	Million Stars 75 cm 10 st/bu 500 gr	2	16.00	32.00	GST	1.6000	CAD
4006	Brownies Florist	2019-12-16	2019-12-31	Net 15			Flowers & Fillers:Hypericum	Magical Triumph 70 cm 10 st/bu 	2	12.50	25.00	GST	1.2500	CAD
4006	Brownies Florist	2019-12-16	2019-12-31	Net 15			Flowers & Fillers:Snapdragon	White. 50 cm 10 st/bu Perfection	2	12.50	25.00	GST	1.2500	CAD
4006	Brownies Florist	2019-12-16	2019-12-31	Net 15			Roses:Roses	Freedom 60 cm 25 st/bu 	2	37.50	75.00	GST	3.7500	CAD
4006	Brownies Florist	2019-12-16	2019-12-31	Net 15			Roses:Roses	Vendela 50 cm 25 st/bu 	1	33.75	33.75	GST	1.6875	CAD
4006	Brownies Florist	2019-12-16	2019-12-31	Net 15			Roses:Spray Roses	Alaska 50 cm 10 st/bu 	1	19.00	19.00	GST	0.9500	CAD
4006	Brownies Florist	2019-12-16	2019-12-31	Net 15			Roses:Spray Roses	Rubicon 50 cm 10 st/bu 	2	19.00	38.00	GST	1.9000	CAD
4006	Brownies Florist	2019-12-16	2019-12-31	Net 15			Roses:Spray Roses	Snowflake 50 cm 10 st/bu 	1	19.00	19.00	GST	0.9500	CAD
4006	Fine Floral Designs	2019-12-16	2019-12-31	Net 15			Asters:Solidago Golden Glory	Solidago Golden Glory 80 cm 10 st/bu 250gr	2	9.85	19.70	GST	0.9850	CAD
4006	Fine Floral Designs	2019-12-16	2019-12-31	Net 15			Flowers & Fillers:Bupleurum	Bupleurum 70 cm 10 st/bu 	2	9.50	19.00	GST	0.9500	CAD
4006	Fine Floral Designs	2019-12-16	2019-12-31	Net 15			Flowers & Fillers:Hydrangea Mini Green	Mini Green Dark 60 cm 1 st/bu Mini	30	1.50	45.00	GST	2.2500	CAD
4006	Fine Floral Designs	2019-12-16	2019-12-31	Net 15			Roses:Roses	Explorer 60 cm 25 st/bu 	3	50.00	150.00	GST	7.5000	CAD
4006	Fine Floral Designs	2019-12-16	2019-12-31	Net 15			Roses:Roses	Gotcha 60 cm 25 st/bu 	1	33.75	33.75	GST	1.6875	CAD
4006	Fine Floral Designs	2019-12-16	2019-12-31	Net 15			Roses:Roses	Playa Blanca  60 cm 25 st/bu 	2	50.00	100.00	GST	5.0000	CAD
4006	Fine Floral Designs	2019-12-16	2019-12-31	Net 15			Roses:Roses	Playa Blanca  60 cm 25 st/bu 	1	33.75	33.75	GST	1.6875	CAD
4006	Fine Floral Designs	2019-12-16	2019-12-31	Net 15			Roses:Roses	Shimmer 60 cm 25 st/bu 	1	33.75	33.75	GST	1.6875	CAD
4006	Flowers And Company	2019-12-16	2019-12-31	Net 15			Flowers & Fillers:Gypsophilia 500gr	Xcelence 75 cm 10 st/bu 500 gr	2	16.00	32.00	GST	1.6000	CAD
4006	Flowers And Company	2019-12-16	2019-12-31	Net 15			Flowers & Fillers:Hydrangea Mini Green	Mini Green Dark 60 cm 1 st/bu Mini	30	1.50	45.00	GST	2.2500	CAD
4006	Flowers And Company	2019-12-16	2019-12-31	Net 15			Roses:Roses	Freedom 60 cm 25 st/bu 	1	37.50	37.50	GST	1.8750	CAD
4006	Flowers And Company	2019-12-16	2019-12-31	Net 15			Roses:Roses	Frutteto 60 cm 25 st/bu 	2	33.75	67.50	GST	3.3750	CAD
4006	Flowers And Company	2019-12-16	2019-12-31	Net 15			Roses:Roses	Hearts 40 cm  st/bu 	8	27.50	220.00	GST	11.0000	CAD
4006	Flowers And Company	2019-12-16	2019-12-31	Net 15			Roses:Roses	Mondial 60 cm 25 st/bu 	3	36.25	108.75	GST	5.4375	CAD
4006	Flowers And Company	2019-12-16	2019-12-31	Net 15			Roses:Roses	Pink Floyd 40 cm  st/bu 	2	23.75	47.50	GST	2.3750	CAD
4006	Flowers And Company	2019-12-16	2019-12-31	Net 15			Roses:Roses	Shimmer 60 cm 25 st/bu 	1	33.75	33.75	GST	1.6875	CAD
4006	Foxgloves	2019-12-16	2019-12-31	Net 15			Flowers & Fillers:Hypericum	Magical Green Power 70 cm 10 st/bu 	2	12.50	25.00	GST	1.2500	CAD
4006	Foxgloves	2019-12-16	2019-12-31	Net 15			Flowers & Fillers:Hypericum	Magical Green Power 70 cm 10 st/bu 	2	12.50	25.00	GST	1.2500	CAD
4006	Foxgloves	2019-12-16	2019-12-31	Net 15			Flowers & Fillers:Ranunculus	Agrogana Peach 40 cm 10 st/bu 	1	14.50	14.50	GST	0.7250	CAD
4006	Foxgloves	2019-12-16	2019-12-31	Net 15			Flowers & Fillers:Ranunculus	Agrogana Purple 40 cm 10 st/bu 	1	14.50	14.50	GST	0.7250	CAD
4006	Foxgloves	2019-12-16	2019-12-31	Net 15			Roses:Roses	Gotcha 70 cm 25 st/bu 	1	33.75	33.75	GST	1.6875	CAD
4006	Foxgloves	2019-12-16	2019-12-31	Net 15			Roses:Roses	Kahala  60 cm 25 st/bu 	1	33.75	33.75	GST	1.6875	CAD
4006	Foxgloves	2019-12-16	2019-12-31	Net 15			Roses:Roses	Quicksand 60 cm 25 st/bu 	2	47.50	95.00	GST	4.7500	CAD
4006	Foxgloves	2019-12-16	2019-12-31	Net 15			Roses:Roses	Toffee 60 cm 25 st/bu 	2	50.00	100.00	GST	5.0000	CAD
4006	Foxgloves	2019-12-16	2019-12-31	Net 15			Roses:Roses	Wasabi 50 cm 25 st/bu 	1	33.75	33.75	GST	1.6875	CAD
4006	Foxgloves	2019-12-16	2019-12-31	Net 15			Roses:Spray Roses	Sahara Sensation 60 cm 10 st/bu 	2	15.50	31.00	GST	1.5500	CAD
4006	Foxgloves	2019-12-16	2019-12-31	Net 15			Roses:Spray Roses	Scarlett Mimi 50 cm 10 st/bu 	3	22.00	66.00	GST	3.3000	CAD
4006	Foxgloves	2019-12-16	2019-12-31	Net 15			Roses:Spray Roses	White Majolika 40 cm 10 st/bu 	1	18.00	18.00	GST	0.9000	CAD
4006	Garden Party Team	2019-12-16	2019-12-31	Net 15			Flowers & Fillers:Ranunculus	Agrogana Hot Pink 40 cm 10 st/bu 	2	19.50	39.00	GST	1.9500	CAD
4006	Garden Party Team	2019-12-16	2019-12-31	Net 15			Flowers & Fillers:Ranunculus	Agrogana Hot Pink 40 cm 10 st/bu 	1	19.50	19.50	GST	0.9750	CAD
4006	Garden Party Team	2019-12-16	2019-12-31	Net 15			Flowers & Fillers:Ranunculus	Agrogana Light Pink 50 cm 10 st/bu 	1	19.50	19.50	GST	0.9750	CAD
4006	Garden Party Team	2019-12-16	2019-12-31	Net 15			Flowers & Fillers:Ranunculus	Agrogana White 50 cm 10 st/bu 	1	19.50	19.50	GST	0.9750	CAD
4006	Garden Party Team	2019-12-16	2019-12-31	Net 15			Flowers & Fillers:Ranunculus	Agrogana White 40 cm 10 st/bu 	1	19.50	19.50	GST	0.9750	CAD
4006	Garden Party Team	2019-12-16	2019-12-31	Net 15			Flowers & Fillers:Snapdragon	Leucadendrum 65 cm 10 st/bu 	1	8.75	8.75	GST	0.4375	CAD
4006	Garden Party Team	2019-12-16	2019-12-31	Net 15			Roses:Roses	Freedom 60 cm 25 st/bu 	2	33.75	67.50	GST	3.3750	CAD
4006	Garden Party Team	2019-12-16	2019-12-31	Net 15			Roses:Roses	Hot Explorer 60 cm 25 st/bu 	2	33.75	67.50	GST	3.3750	CAD
4006	Garden Party Team	2019-12-16	2019-12-31	Net 15			Roses:Roses	Hot Explorer 60 cm 25 st/bu 	1	33.75	33.75	GST	1.6875	CAD
4006	Garden Party Team	2019-12-16	2019-12-31	Net 15			Roses:Roses	Kahala  60 cm 25 st/bu 	1	33.75	33.75	GST	1.6875	CAD
4006	Garden Party Team	2019-12-16	2019-12-31	Net 15			Roses:Roses	Ocean Song 60 cm 25 st/bu 	1	33.75	33.75	GST	1.6875	CAD
4006	Garden Party Team	2019-12-16	2019-12-31	Net 15			Roses:Roses	Playa Blanca  60 cm 25 st/bu 	2	38.75	77.50	GST	3.8750	CAD
4006	Garden Party Team	2019-12-16	2019-12-31	Net 15			Roses:Spray Roses	Alaska 50 cm 10 st/bu 	1	22.00	22.00	GST	1.1000	CAD
4006	Garden Party Team	2019-12-16	2019-12-31	Net 15			Roses:Spray Roses	Alaska 50 cm 10 st/bu 	2	22.00	44.00	GST	2.2000	CAD
4006	Garden Party Team	2019-12-16	2019-12-31	Net 15			Roses:Spray Roses	Cream Irischka 60 cm 10 st/bu 	1	15.50	15.50	GST	0.7750	CAD
4006	Garden Party Team	2019-12-16	2019-12-31	Net 15			Roses:Spray Roses	Cream Irischka 60 cm 10 st/bu 	1	15.50	15.50	GST	0.7750	CAD
4006	Harrys Flowers	2019-12-16	2019-12-31	Net 15			\N	Dusty Miller 50 cm 10 st/bu 	2	16.50	33.00	GST	1.6500	CAD
4006	Harrys Flowers	2019-12-16	2019-12-31	Net 15			Asters:Solidago Golden Glory	Solidago Golden Glory 80 cm 10 st/bu 250gr	8	9.85	78.80	GST	3.9400	CAD
4006	Harrys Flowers	2019-12-16	2019-12-31	Net 15			Flowers & Fillers:Bupleurum	Bupleurum 70 cm 10 st/bu 	6	9.50	57.00	GST	2.8500	CAD
4006	Harrys Flowers	2019-12-16	2019-12-31	Net 15			Flowers & Fillers:Gypsophilia 500gr	Xcelence 75 cm 10 st/bu 500 gr	10	16.00	160.00	GST	8.0000	CAD
4006	Harrys Flowers	2019-12-16	2019-12-31	Net 15			Flowers & Fillers:Hydrangea Mini Green	Zion White 60 cm 1 st/bu Select	12	1.50	18.00	GST	0.9000	CAD
4006	Harrys Flowers	2019-12-16	2019-12-31	Net 15			Flowers & Fillers:Hydrangea Mini Green	Zion White 60 cm 1 st/bu Select	12	1.50	18.00	GST	0.9000	CAD
4006	Harrys Flowers	2019-12-16	2019-12-31	Net 15			Flowers & Fillers:Hydrangea Mini Green	Zion White 60 cm 1 st/bu Select	12	1.50	18.00	GST	0.9000	CAD
4006	Harrys Flowers	2019-12-16	2019-12-31	Net 15			Flowers & Fillers:Hypericum	Magical Red Wine 70 cm 10 st/bu 	5	12.50	62.50	GST	3.1250	CAD
4006	Harrys Flowers	2019-12-16	2019-12-31	Net 15			Flowers & Fillers:Hypericum	Magical Triumph 70 cm 10 st/bu 	3	12.50	37.50	GST	1.8750	CAD
4006	Harrys Flowers	2019-12-16	2019-12-31	Net 15			Flowers & Fillers:Snapdragon	Bazzani Purple 70 cm 10 st/bu 	8	8.75	70.00	GST	3.5000	CAD
4006	Harrys Flowers	2019-12-16	2019-12-31	Net 15			Flowers & Fillers:Snapdragon	Leucadendrum 65 cm 10 st/bu 	6	8.75	52.50	GST	2.6250	CAD
4006	Harrys Flowers	2019-12-16	2019-12-31	Net 15			Flowers & Fillers:Stock	James Lavander 70 cm 10 st/bu 	1	11.75	11.75	GST	0.5875	CAD
4006	Harrys Flowers	2019-12-16	2019-12-31	Net 15			Limonium:Limonioum	Sky Light 80 cm 6 st/bu 	6	9.80	58.80	GST	2.9400	CAD
4006	Harrys Flowers	2019-12-16	2019-12-31	Net 15			Roses:Roses	Atomic 60 cm 25 st/bu 	1	33.75	33.75	GST	1.6875	CAD
4006	Harrys Flowers	2019-12-16	2019-12-31	Net 15			Roses:Roses	Deep Purple 60 cm 25 st/bu 	2	33.75	67.50	GST	3.3750	CAD
4006	Harrys Flowers	2019-12-16	2019-12-31	Net 15			Roses:Roses	Freedom 60 cm 25 st/bu 	5	40.00	200.00	GST	10.0000	CAD
4006	Harrys Flowers	2019-12-16	2019-12-31	Net 15			Roses:Roses	Freedom 60 cm 25 st/bu 	2	40.00	80.00	GST	4.0000	CAD
4006	Harrys Flowers	2019-12-16	2019-12-31	Net 15			Roses:Roses	Freedom 60 cm 25 st/bu 	3	33.75	101.25	GST	5.0625	CAD
4006	Harrys Flowers	2019-12-16	2019-12-31	Net 15			Roses:Roses	Freedom 60 cm 25 st/bu 	4	40.00	160.00	GST	8.0000	CAD
4006	Harrys Flowers	2019-12-16	2019-12-31	Net 15			Roses:Roses	Frutteto 60 cm 25 st/bu 	1	33.75	33.75	GST	1.6875	CAD
4006	Harrys Flowers	2019-12-16	2019-12-31	Net 15			Roses:Roses	Gotcha 60 cm 25 st/bu 	2	33.75	67.50	GST	3.3750	CAD
4006	Harrys Flowers	2019-12-16	2019-12-31	Net 15			Roses:Roses	Mondial 60 cm 25 st/bu 	4	40.00	160.00	GST	8.0000	CAD
4006	Harrys Flowers	2019-12-16	2019-12-31	Net 15			Roses:Roses	Mondial 60 cm 25 st/bu 	2	33.75	67.50	GST	3.3750	CAD
4006	Harrys Flowers	2019-12-16	2019-12-31	Net 15			Roses:Roses	Tiffany 60 cm 25 st/bu 	1	33.75	33.75	GST	1.6875	CAD
4006	Harrys Flowers	2019-12-16	2019-12-31	Net 15			Roses:Roses	Wasabi 50 cm 25 st/bu 	1	33.75	33.75	GST	1.6875	CAD
4006	Ingrid Wu	2019-12-16	2019-12-31	Net 15			Roses:Roses	Playa Blanca  60 cm 25 st/bu 	2	38.75	77.50	GST	3.8750	CAD
4006	Ingrid Wu	2019-12-16	2019-12-31	Net 15			Roses:Spray Roses	Alaska 50 cm 10 st/bu 	5	20.00	100.00	GST	5.0000	CAD
4006	Ingrid Wu	2019-12-16	2019-12-31	Net 15			Roses:Spray Roses	Alaska 60 cm 10 st/bu 	12	21.00	252.00	GST	12.6000	CAD
4006	Ingrid Wu	2019-12-16	2019-12-31	Net 15			Roses:Spray Roses	Rubicon 50 cm 10 st/bu 	5	20.00	100.00	GST	5.0000	CAD
4006	Ingrid Wu	2019-12-16	2019-12-31	Net 15			Roses:Spray Roses	Scarlett Mimi 50 cm 10 st/bu 	2	20.00	40.00	GST	2.0000	CAD
4006	Ingrid Wu	2019-12-16	2019-12-31	Net 15			Roses:Spray Roses	Scarlett Mimi 60 cm 10 st/bu 	5	21.00	105.00	GST	5.2500	CAD
4006	Ingrid Wu	2019-12-16	2019-12-31	Net 15			Roses:Spray Roses	White Majolika 50 cm 10 st/bu 	2	20.00	40.00	GST	2.0000	CAD
4006	Ingrid Wu	2019-12-16	2019-12-31	Net 15			Roses:Spray Roses	White Majolika 50 cm 10 st/bu 	2	20.00	40.00	GST	2.0000	CAD
4006	Ingrid Wu	2019-12-16	2019-12-31	Net 15			Roses:Spray Roses	White Majolika 60 cm 10 st/bu 	1	21.00	21.00	GST	1.0500	CAD
4006	Jennings Florist	2019-12-16	2019-12-31	Net 15			Roses:Roses	Freedom 60 cm 25 st/bu 	4	40.00	160.00	GST	8.0000	CAD
4006	Jennings Florist	2019-12-16	2019-12-31	Net 15			Roses:Roses	Freedom 60 cm 25 st/bu 	1	40.00	40.00	GST	2.0000	CAD
4006	Jennings Florist	2019-12-16	2019-12-31	Net 15			Roses:Roses	Freedom 60 cm 25 st/bu 	2	40.00	80.00	GST	4.0000	CAD
4006	Jennings Florist	2019-12-16	2019-12-31	Net 15			Roses:Roses	Gotcha 60 cm 25 st/bu 	1	33.75	33.75	GST	1.6875	CAD
4006	Jennings Florist	2019-12-16	2019-12-31	Net 15			Roses:Roses	Playa Blanca  60 cm 25 st/bu 	1	47.50	47.50	GST	2.3750	CAD
4006	Jennings Florist	2019-12-16	2019-12-31	Net 15			Roses:Roses	Vendela 60 cm 25 st/bu 	2	40.00	80.00	GST	4.0000	CAD
4006	Jennings Florist	2019-12-16	2019-12-31	Net 15			Roses:Spray Roses	Scarlett Mimi 50 cm 10 st/bu 	3	21.00	63.00	GST	3.1500	CAD
4006	Jennings Florist	2019-12-16	2019-12-31	Net 15			Roses:Spray Roses	Snowflake 50 cm 10 st/bu 	1	21.00	21.00	GST	1.0500	CAD
4006	Jennings Florist	2019-12-16	2019-12-31	Net 15			Roses:Spray Roses	White Majolika 60 cm 10 st/bu 	1	22.00	22.00	GST	1.1000	CAD
4006	Jennings Florist	2019-12-16	2019-12-31	Net 15			Roses:Spray Roses	White Majolika 40 cm 10 st/bu 	1	19.00	19.00	GST	0.9500	CAD
4006	John den Haan	2019-12-16	2019-12-31	Net 15			Roses:Roses	Quicksand 60 cm 25 st/bu 	1	41.25	41.25	GST	2.0625	CAD
4006	Maple Ridge Florist	2019-12-16	2019-12-31	Net 15			Roses:Roses	Freedom 60 cm 25 st/bu 	2	33.75	67.50	GST	3.3750	CAD
4006	Maple Ridge Florist	2019-12-16	2019-12-31	Net 15			Roses:Roses	Gotcha 60 cm 25 st/bu 	2	33.75	67.50	GST	3.3750	CAD
4006	Maple Ridge Florist	2019-12-16	2019-12-31	Net 15			Roses:Roses	Pink Mondial 60 cm 25 st/bu 	2	33.75	67.50	GST	3.3750	CAD
4006	Maple Ridge Florist	2019-12-16	2019-12-31	Net 15			Roses:Roses	Vendela 50 cm 25 st/bu 	2	33.75	67.50	GST	3.3750	CAD
4006	Maureen Sullivan Floral Design Studio	2019-12-16	2019-12-31	Net 15			Carnations:Carnation	Moonlight 60 cm 25 st/bu Standard	1	11.00	11.00	GST	0.5500	CAD
4006	Maureen Sullivan Floral Design Studio	2019-12-16	2019-12-31	Net 15			Carnations:Carnation	St Peppermint 60 cm 25 st/bu Standard	2	11.00	22.00	GST	1.1000	CAD
4006	Maureen Sullivan Floral Design Studio	2019-12-16	2019-12-31	Net 15			Carnations:Carnation	Zurigo 60 cm 25 st/bu Standard	2	11.00	22.00	GST	1.1000	CAD
4006	Maureen Sullivan Floral Design Studio	2019-12-16	2019-12-31	Net 15			Carnations:Mini Carnation	Ada 50 cm 10 st/bu Select	3	5.80	17.40	GST	0.8700	CAD
4006	Maureen Sullivan Floral Design Studio	2019-12-16	2019-12-31	Net 15			Carnations:Mini Carnation	Ibis 60 cm 10 st/bu Fancy	5	5.80	29.00	GST	1.4500	CAD
4006	Maureen Sullivan Floral Design Studio	2019-12-16	2019-12-31	Net 15			Carnations:Mini Carnation	Scarlette Plus 50 cm 10 st/bu Standard	3	5.80	17.40	GST	0.8700	CAD
4006	Maureen Sullivan Floral Design Studio	2019-12-16	2019-12-31	Net 15			Flowers & Fillers:Gypsophilia 500gr	Million Stars 75 cm 10 st/bu 500 gr	2	16.00	32.00	GST	1.6000	CAD
4006	Maureen Sullivan Floral Design Studio	2019-12-16	2019-12-31	Net 15			Roses:Roses	Explorer 60 cm 25 st/bu 	1	46.25	46.25	GST	2.3125	CAD
4006	Maureen Sullivan Floral Design Studio	2019-12-16	2019-12-31	Net 15			Roses:Roses	Playa Blanca  60 cm 25 st/bu 	1	46.25	46.25	GST	2.3125	CAD
4006	Maureen Sullivan Floral Design Studio	2019-12-16	2019-12-31	Net 15			Roses:Roses	Shimmer 50 cm 25 st/bu 	1	33.75	33.75	GST	1.6875	CAD
4006	Maureen Sullivan Floral Design Studio	2019-12-16	2019-12-31	Net 15			Roses:Roses	Tiffany 60 cm 25 st/bu 	1	33.75	33.75	GST	1.6875	CAD
4006	Niki Trading	2019-12-16	2019-12-31	Net 15			Roses:Roses	Quicksand 60 cm 25 st/bu 	1	41.25	41.25	GST	2.0625	CAD
4006	Niki Trading	2019-12-16	2019-12-31	Net 15			Roses:Roses	Quicksand 60 cm 25 st/bu 	1	41.25	41.25	GST	2.0625	CAD
4006	Oak Bay Flower Shop	2019-12-16	2019-12-31	Net 15			Carnations:Carnation	Crimson Tempo 60 cm 25 st/bu Standard	1	13.00	13.00	GST	0.6500	CAD
4006	Oak Bay Flower Shop	2019-12-16	2019-12-31	Net 15			Carnations:Carnation	St Peppermint 60 cm 25 st/bu Standard	2	12.00	24.00	GST	1.2000	CAD
4006	Oak Bay Flower Shop	2019-12-16	2019-12-31	Net 15			Carnations:Mini Carnation	Aragon 60 cm 10 st/bu Fancy	2	5.30	10.60	GST	0.5300	CAD
4006	Oak Bay Flower Shop	2019-12-16	2019-12-31	Net 15			Carnations:Mini Carnation	Chateau 60 cm 10 st/bu Fancy	2	5.30	10.60	GST	0.5300	CAD
4006	Oak Bay Flower Shop	2019-12-16	2019-12-31	Net 15			Carnations:Mini Carnation	Chateau 60 cm 10 st/bu Fancy	1	5.30	5.30	GST	0.2650	CAD
4006	Oak Bay Flower Shop	2019-12-16	2019-12-31	Net 15			Carnations:Mini Carnation	Corinto 60 cm 10 st/bu Fancy	2	5.30	10.60	GST	0.5300	CAD
4006	Oak Bay Flower Shop	2019-12-16	2019-12-31	Net 15			Carnations:Mini Carnation	Epsilon 60 cm 10 st/bu Fancy	2	5.30	10.60	GST	0.5300	CAD
4006	Oak Bay Flower Shop	2019-12-16	2019-12-31	Net 15			Carnations:Mini Carnation	Ibis 60 cm 10 st/bu Fancy	2	5.30	10.60	GST	0.5300	CAD
4006	Oak Bay Flower Shop	2019-12-16	2019-12-31	Net 15			Carnations:Mini Carnation	Olivino 60 cm 10 st/bu Fancy	2	5.30	10.60	GST	0.5300	CAD
4006	Oak Bay Flower Shop	2019-12-16	2019-12-31	Net 15			Carnations:Mini Carnation	Pigeon 60 cm 10 st/bu Fancy	2	5.30	10.60	GST	0.5300	CAD
4006	Oak Bay Flower Shop	2019-12-16	2019-12-31	Net 15			Flowers & Fillers:Gypsophilia 500gr	Million Stars 75 cm 10 st/bu 500 gr	4	16.00	64.00	GST	3.2000	CAD
4006	Oak Bay Flower Shop	2019-12-16	2019-12-31	Net 15			Flowers & Fillers:Gypsophilia 500gr	Million Stars 75 cm 10 st/bu 500 gr	4	16.00	64.00	GST	3.2000	CAD
4006	Oak Bay Flower Shop	2019-12-16	2019-12-31	Net 15			Flowers & Fillers:Ranunculus	Agrogana Red 40 cm 10 st/bu 	1	19.50	19.50	GST	0.9750	CAD
4006	Oak Bay Flower Shop	2019-12-16	2019-12-31	Net 15			Flowers & Fillers:Ranunculus	Agrogana White 40 cm 10 st/bu 	1	19.50	19.50	GST	0.9750	CAD
4006	Oak Bay Flower Shop	2019-12-16	2019-12-31	Net 15			Roses:Roses	Freedom 60 cm 25 st/bu 	4	38.75	155.00	GST	7.7500	CAD
4006	Oak Bay Flower Shop	2019-12-16	2019-12-31	Net 15			Roses:Roses	Freedom 60 cm 25 st/bu 	2	38.75	77.50	GST	3.8750	CAD
4006	Oak Bay Flower Shop	2019-12-16	2019-12-31	Net 15			Roses:Roses	Freedom 60 cm 25 st/bu 	1	38.75	38.75	GST	1.9375	CAD
4006	Oak Bay Flower Shop	2019-12-16	2019-12-31	Net 15			Roses:Roses	Freedom 60 cm 25 st/bu 	3	38.75	116.25	GST	5.8125	CAD
4006	Oak Bay Flower Shop	2019-12-16	2019-12-31	Net 15			Roses:Roses	Freedom 60 cm 25 st/bu 	1	38.75	38.75	GST	1.9375	CAD
4006	Oak Bay Flower Shop	2019-12-16	2019-12-31	Net 15			Roses:Roses	Mondial 60 cm 25 st/bu 	2	38.75	77.50	GST	3.8750	CAD
4006	Oak Bay Flower Shop	2019-12-16	2019-12-31	Net 15			Roses:Roses	Mondial 60 cm 25 st/bu 	1	38.75	38.75	GST	1.9375	CAD
4006	Oak Bay Flower Shop	2019-12-16	2019-12-31	Net 15			Roses:Roses	Mondial 70 cm 25 st/bu 	1	38.75	38.75	GST	1.9375	CAD
4006	Oak Bay Flower Shop	2019-12-16	2019-12-31	Net 15			Roses:Roses	Mondial 60 cm 25 st/bu 	1	38.75	38.75	GST	1.9375	CAD
4006	Oak Bay Flower Shop	2019-12-16	2019-12-31	Net 15			Roses:Roses	Shimmer 60 cm 25 st/bu 	2	33.75	67.50	GST	3.3750	CAD
4006	Oak Bay Flower Shop	2019-12-16	2019-12-31	Net 15			Roses:Roses	Shimmer 60 cm 25 st/bu 	2	33.75	67.50	GST	3.3750	CAD
4006	Pacific Coast Floral Wholesale Ltd	2019-12-16	2019-12-31	Net 15			Flowers & Fillers:Bells Of Ireland	Molucella Bells of Ireland 90 cm 10 st/bu 	9	11.00	99.00	GST	4.9500	CAD
4006	Pacific Coast Floral Wholesale Ltd	2019-12-16	2019-12-31	Net 15			Flowers & Fillers:Delphinium	Delphinium Hybrid White 80 cm 10 st/bu 	5	10.00	50.00	GST	2.5000	CAD
4006	Pacific Coast Floral Wholesale Ltd	2019-12-16	2019-12-31	Net 15			Flowers & Fillers:Hydrangea Mini Green	White 50 cm 10 st/bu 	5	17.82	89.10	GST	4.4550	CAD
4006	Pacific Coast Floral Wholesale Ltd	2019-12-16	2019-12-31	Net 15			Flowers & Fillers:Ranunculus	Agrogana Red 40 cm 10 st/bu 	1	15.84	15.84	GST	0.7920	CAD
4006	Pacific Coast Floral Wholesale Ltd	2019-12-16	2019-12-31	Net 15			Flowers & Fillers:Ranunculus	Agrogana White 40 cm 10 st/bu 	2	15.84	31.68	GST	1.5840	CAD
4006	Pacific Coast Floral Wholesale Ltd	2019-12-16	2019-12-31	Net 15			Flowers & Fillers:Ranunculus	Agrogana White 40 cm 10 st/bu 	3	15.84	47.52	GST	2.3760	CAD
4006	Pacific Coast Floral Wholesale Ltd	2019-12-16	2019-12-31	Net 15			Flowers & Fillers:Ranunculus	Agrogana White 40 cm 10 st/bu 	1	15.84	15.84	GST	0.7920	CAD
4006	Pacific Coast Floral Wholesale Ltd	2019-12-16	2019-12-31	Net 15			Flowers & Fillers:Stock	James White 70 cm 10 st/bu 	15	6.40	96.00	GST	4.8000	CAD
4006	Pacific Coast Floral Wholesale Ltd	2019-12-16	2019-12-31	Net 15			Flowers & Fillers:Stock	James White 70 cm 10 st/bu 	6	6.40	38.40	GST	1.9200	CAD
4006	Shes My Florist	2019-12-16	2019-12-31	Net 15			Roses:Roses	Freedom 60 cm 25 st/bu 	5	36.25	181.25	GST	9.0625	CAD
4006	The Flower Factory	2019-12-16	2019-12-31	Net 15			Carnations:Carnation	Lege Marrone 50 cm 25 st/bu Standard	2	11.00	22.00	GST	1.1000	CAD
4006	The Flower Factory	2019-12-16	2019-12-31	Net 15			Flowers & Fillers:Hydrangea Mini Green	White 50 cm 10 st/bu 	5	19.00	95.00	GST	4.7500	CAD
4006	The Flower Factory	2019-12-16	2019-12-31	Net 15			Flowers & Fillers:Ranunculus	Agrogana Coral 40 cm 10 st/bu 	1	19.50	19.50	GST	0.9750	CAD
4006	The Flower Factory	2019-12-16	2019-12-31	Net 15			Flowers & Fillers:Ranunculus	Agrogana Cream 40 cm 10 st/bu 	1	19.50	19.50	GST	0.9750	CAD
4006	The Flower Factory	2019-12-16	2019-12-31	Net 15			Flowers & Fillers:Ranunculus	Agrogana Orange 50 cm 10 st/bu 	1	19.50	19.50	GST	0.9750	CAD
4006	The Flower Factory	2019-12-16	2019-12-31	Net 15			Flowers & Fillers:Ranunculus	Agrogana Peach 40 cm 10 st/bu 	1	19.50	19.50	GST	0.9750	CAD
4006	The Flower Factory	2019-12-16	2019-12-31	Net 15			Flowers & Fillers:Ranunculus	Agrogana Yellow 40 cm 10 st/bu 	1	19.50	19.50	GST	0.9750	CAD
4006	The Flower Factory	2019-12-16	2019-12-31	Net 15			Roses:Roses	Playa Blanca  60 cm 25 st/bu 	1	38.75	38.75	GST	1.9375	CAD
4006	Thorn & Thistle	2019-12-16	2019-12-31	Net 15			Flowers & Fillers:Ranunculus	Agrogana Peach 40 cm 10 st/bu 	2	19.50	39.00	GST	1.9500	CAD
4006	Thorn & Thistle	2019-12-16	2019-12-31	Net 15			Flowers & Fillers:Ranunculus	Agrogana White 40 cm 10 st/bu 	2	19.50	39.00	GST	1.9500	CAD
4006	Thorn & Thistle	2019-12-16	2019-12-31	Net 15			Roses:Roses	Explorer 60 cm 25 st/bu 	2	45.00	90.00	GST	4.5000	CAD
4006	Thorn & Thistle	2019-12-16	2019-12-31	Net 15			Roses:Roses	Playa Blanca  60 cm 25 st/bu 	2	45.00	90.00	GST	4.5000	CAD
4006	Thorn & Thistle	2019-12-16	2019-12-31	Net 15			Roses:Roses	Quicksand 60 cm 25 st/bu 	1	50.00	50.00	GST	2.5000	CAD
4006	Thorn & Thistle	2019-12-16	2019-12-31	Net 15			Roses:Roses	Quicksand 60 cm 25 st/bu 	1	50.00	50.00	GST	2.5000	CAD
4006	West Coast Floral Growers & Distr.	2019-12-16	2019-12-31	Net 15			Flowers & Fillers:Hydrangea Mini Green	Mini Green Dark 60 cm 1 st/bu Mini	30	1.50	45.00	GST	2.2500	CAD
4006	West Coast Floral Growers & Distr.	2019-12-16	2019-12-31	Net 15			Roses:Roses	Brighton 60 cm 25 st/bu 	2	31.25	62.50	GST	3.1250	CAD
4006	West Coast Floral Growers & Distr.	2019-12-16	2019-12-31	Net 15			Roses:Roses	Confidential 60 cm 25 st/bu 	2	31.25	62.50	GST	3.1250	CAD
4006	West Coast Floral Growers & Distr.	2019-12-16	2019-12-31	Net 15			Roses:Roses	Deep Purple 60 cm 25 st/bu 	2	31.25	62.50	GST	3.1250	CAD
4006	West Coast Floral Growers & Distr.	2019-12-16	2019-12-31	Net 15			Roses:Roses	Explorer 60 cm 25 st/bu 	2	31.25	62.50	GST	3.1250	CAD
4006	West Coast Floral Growers & Distr.	2019-12-16	2019-12-31	Net 15			Roses:Roses	Faith 50 cm 25 st/bu 	1	31.25	31.25	GST	1.5625	CAD
4006	West Coast Floral Growers & Distr.	2019-12-16	2019-12-31	Net 15			Roses:Roses	Freedom 60 cm 25 st/bu 	5	31.25	156.25	GST	7.8125	CAD
4006	West Coast Floral Growers & Distr.	2019-12-16	2019-12-31	Net 15			Roses:Roses	Gotcha 70 cm 25 st/bu 	1	31.25	31.25	GST	1.5625	CAD
4006	West Coast Floral Growers & Distr.	2019-12-16	2019-12-31	Net 15			Roses:Roses	Vendela 60 cm 25 st/bu 	2	31.25	62.50	GST	3.1250	CAD
4006	West Coast Floral Growers & Distr.	2019-12-16	2019-12-31	Net 15			Roses:Roses	Wasabi 60 cm 25 st/bu 	1	31.25	31.25	GST	1.5625	CAD
4006	West Coast Floral Growers & Distr.	2019-12-16	2019-12-31	Net 15			Roses:Spray Roses	Rubicon 50 cm 10 st/bu 	2	18.00	36.00	GST	1.8000	CAD
4006	West Coast Floral Growers & Distr.	2019-12-16	2019-12-31	Net 15			Roses:Spray Roses	Rubicon 50 cm 10 st/bu 	1	18.00	18.00	GST	0.9000	CAD
4006	West Coast Floral Growers & Distr.	2019-12-16	2019-12-31	Net 15			Roses:Spray Roses	Scarlett Mimi 50 cm 10 st/bu 	2	18.00	36.00	GST	1.8000	CAD
4006	West Coast Floral Growers & Distr.	2019-12-16	2019-12-31	Net 15			Roses:Spray Roses	Scarlett Mimi 60 cm 10 st/bu 	7	1.90	13.30	GST	0.6650	CAD
