4008	Angela & Gabriels	2020-01-06	2020-01-21	Net 15			Roses:Roses	Explorer 70 cm 25 st/bu 	1	33.75	33.75	GST	1.6875	CAD
4008	Angela & Gabriels	2020-01-06	2020-01-21	Net 15			Roses:Roses	Explorer 70 cm 25 st/bu 	4	36.25	145.00	GST	7.2500	CAD
4008	Angela & Gabriels	2020-01-06	2020-01-21	Net 15			Roses:Roses	Gotcha 80 cm 25 st/bu 	2	36.25	72.50	GST	3.6250	CAD
4008	Angela & Gabriels	2020-01-06	2020-01-21	Net 15			Roses:Roses	Gotcha 80 cm 25 st/bu 	1	36.25	36.25	GST	1.8125	CAD
4008	Angela & Gabriels	2020-01-06	2020-01-21	Net 15			Roses:Roses	Limonada 70 cm 25 st/bu 	1	36.25	36.25	GST	1.8125	CAD
4008	Angela & Gabriels	2020-01-06	2020-01-21	Net 15			Roses:Roses	Limonada 70 cm 25 st/bu 	1	36.25	36.25	GST	1.8125	CAD
4008	Angela & Gabriels	2020-01-06	2020-01-21	Net 15			Roses:Roses	Mondial 70 cm 25 st/bu 	3	36.25	108.75	GST	5.4375	CAD
4008	Angela & Gabriels	2020-01-06	2020-01-21	Net 15			Roses:Roses	Mondial 70 cm 25 st/bu 	1	36.25	36.25	GST	1.8125	CAD
4008	Angela & Gabriels	2020-01-06	2020-01-21	Net 15			Roses:Roses	Moody Blues 70 cm 25 st/bu 	1	36.25	36.25	GST	1.8125	CAD
4008	Angela & Gabriels	2020-01-06	2020-01-21	Net 15			Roses:Roses	Moody Blues 70 cm 25 st/bu 	1	36.25	36.25	GST	1.8125	CAD
4008	Angela & Gabriels	2020-01-06	2020-01-21	Net 15			Roses:Roses	Pink Mondial 70 cm 25 st/bu 	1	36.25	36.25	GST	1.8125	CAD
4008	Angela & Gabriels	2020-01-06	2020-01-21	Net 15			Roses:Roses	Pink Mondial 70 cm 25 st/bu 	1	36.25	36.25	GST	1.8125	CAD
4008	Candy Wu	2020-01-06	2020-01-21	Net 15			Roses:Roses	Faith 50 cm 25 st/bu 	1	33.75	33.75	GST	1.6875	CAD
4008	Candy Wu	2020-01-06	2020-01-21	Net 15			Roses:Roses	Free Spirit 50 cm 25 st/bu 	1	33.75	33.75	GST	1.6875	CAD
4008	Candy Wu	2020-01-06	2020-01-21	Net 15			Roses:Roses	Freedom 60 cm 25 st/bu 	2	33.75	67.50	GST	3.3750	CAD
4008	Candy Wu	2020-01-06	2020-01-21	Net 15			Roses:Roses	Ocean Song 60 cm 25 st/bu 	1	33.75	33.75	GST	1.6875	CAD
4008	Candy Wu	2020-01-06	2020-01-21	Net 15			Roses:Roses	Vendela 60 cm 25 st/bu 	1	33.75	33.75	GST	1.6875	CAD
4008	Fine Floral Designs	2020-01-06	2020-01-21	Net 15			Asters:Solidago Golden Glory	Solidago Golden Glory 80 cm 10 st/bu 250gr	2	9.85	19.70	GST	0.9850	CAD
4008	Fine Floral Designs	2020-01-06	2020-01-21	Net 15			Flowers & Fillers:Bupleurum	Bupleurum 70 cm 10 st/bu 	2	9.50	19.00	GST	0.9500	CAD
4008	Fine Floral Designs	2020-01-06	2020-01-21	Net 15			Flowers & Fillers:Hydrangea Mini Green	Mini Green Dark 60 cm 1 st/bu Mini	30	1.50	45.00	GST	2.2500	CAD
4008	Fine Floral Designs	2020-01-06	2020-01-21	Net 15			Roses:Roses	Explorer 60 cm 25 st/bu 	1	50.00	50.00	GST	2.5000	CAD
4008	Fine Floral Designs	2020-01-06	2020-01-21	Net 15			Roses:Roses	Gotcha 60 cm 25 st/bu 	1	33.75	33.75	GST	1.6875	CAD
4008	Fine Floral Designs	2020-01-06	2020-01-21	Net 15			Roses:Roses	Playa Blanca  60 cm 25 st/bu 	1	33.75	33.75	GST	1.6875	CAD
4008	Fine Floral Designs	2020-01-06	2020-01-21	Net 15			Roses:Roses	Shimmer 60 cm 25 st/bu 	1	33.75	33.75	GST	1.6875	CAD
4008	Flowers And Company	2020-01-06	2020-01-21	Net 15			Flowers & Fillers:Gypsophilia 500gr	Xcelence 75 cm 12 st/bu 250gr	1	16.00	16.00	GST	0.8000	CAD
4008	Flowers And Company	2020-01-06	2020-01-21	Net 15			Roses:Roses	Explorer 60 cm 25 st/bu 	1	33.75	33.75	GST	1.6875	CAD
4008	Flowers And Company	2020-01-06	2020-01-21	Net 15			Roses:Roses	Faith 50 cm 25 st/bu 	2	33.75	67.50	GST	3.3750	CAD
4008	Flowers And Company	2020-01-06	2020-01-21	Net 15			Roses:Roses	Kahala  60 cm 25 st/bu 	2	33.75	67.50	GST	3.3750	CAD
4008	Flowers And Company	2020-01-06	2020-01-21	Net 15			Roses:Roses	Mondial 70 cm 25 st/bu 	1	33.75	33.75	GST	1.6875	CAD
4008	Flowers And Company	2020-01-06	2020-01-21	Net 15			Roses:Roses	Mondial 60 cm 25 st/bu 	1	33.75	33.75	GST	1.6875	CAD
4008	Flowers Beautiful	2020-01-06	2020-01-21	Net 15			Roses:Roses	Explorer 60 cm 25 st/bu 	1	33.75	33.75	GST	1.6875	CAD
4008	Flowers Beautiful	2020-01-06	2020-01-21	Net 15			Roses:Roses	Vendela 60 cm 25 st/bu 	1	33.75	33.75	GST	1.6875	CAD
4008	Garden Party Team	2020-01-06	2020-01-21	Net 15			Flowers & Fillers:Leucadendrum	Leucadendrum 65 cm 10 st/bu 	1	8.75	8.75	GST	0.4375	CAD
4008	Garden Party Team	2020-01-06	2020-01-21	Net 15			Flowers & Fillers:Ranunculus	Agrogana Hot Pink 40 cm 10 st/bu 	3	19.50	58.50	GST	2.9250	CAD
4008	Garden Party Team	2020-01-06	2020-01-21	Net 15			Flowers & Fillers:Ranunculus	Agrogana Light Pink 40 cm 10 st/bu 	1	19.50	19.50	GST	0.9750	CAD
4008	Garden Party Team	2020-01-06	2020-01-21	Net 15			Roses:Roses	Andrea 60 cm 25 st/bu 	1	33.75	33.75	GST	1.6875	CAD
4008	Garden Party Team	2020-01-06	2020-01-21	Net 15			Roses:Roses	Freedom 60 cm 25 st/bu 	2	33.75	67.50	GST	3.3750	CAD
4008	Garden Party Team	2020-01-06	2020-01-21	Net 15			Roses:Roses	Hot Explorer 60 cm 25 st/bu 	2	33.75	67.50	GST	3.3750	CAD
4008	Garden Party Team	2020-01-06	2020-01-21	Net 15			Roses:Roses	Kahala  60 cm 25 st/bu 	1	33.75	33.75	GST	1.6875	CAD
4008	Harrys Flowers	2020-01-06	2020-01-21	Net 15			Asters:Solidago Golden Glory	Solidago Golden Glory 80 cm 10 st/bu 250gr	6	9.85	59.10	GST	2.9550	CAD
4008	Harrys Flowers	2020-01-06	2020-01-21	Net 15			Carnations:Carnation	Banana 60 cm 25 st/bu Standard	1	10.50	10.50	GST	0.5250	CAD
4008	Harrys Flowers	2020-01-06	2020-01-21	Net 15			Carnations:Carnation	Gransole 50 cm 25 st/bu Standard	2	10.50	21.00	GST	1.0500	CAD
4008	Harrys Flowers	2020-01-06	2020-01-21	Net 15			Carnations:Carnation	Kaori 50 cm 25 st/bu Standard	1	10.50	10.50	GST	0.5250	CAD
4008	Harrys Flowers	2020-01-06	2020-01-21	Net 15			Carnations:Carnation	Kaori 50 cm 25 st/bu Standard	1	10.50	10.50	GST	0.5250	CAD
4008	Harrys Flowers	2020-01-06	2020-01-21	Net 15			Carnations:Carnation	Lion King 60 cm 25 st/bu Standard	1	10.50	10.50	GST	0.5250	CAD
4008	Harrys Flowers	2020-01-06	2020-01-21	Net 15			Carnations:Carnation	Mandalay 50 cm 25 st/bu Standard	1	10.50	10.50	GST	0.5250	CAD
4008	Harrys Flowers	2020-01-06	2020-01-21	Net 15			Carnations:Carnation	Moonlight 50 cm 25 st/bu Standard	2	10.50	21.00	GST	1.0500	CAD
4008	Harrys Flowers	2020-01-06	2020-01-21	Net 15			Carnations:Mini Carnation	Ada 50 cm 10 st/bu Fancy	4	5.30	21.20	GST	1.0600	CAD
4008	Harrys Flowers	2020-01-06	2020-01-21	Net 15			Carnations:Mini Carnation	Aragon 60 cm 10 st/bu Fancy	2	5.30	10.60	GST	0.5300	CAD
4008	Harrys Flowers	2020-01-06	2020-01-21	Net 15			Carnations:Mini Carnation	Aragon 50 cm 10 st/bu Fancy	3	5.30	15.90	GST	0.7950	CAD
4008	Harrys Flowers	2020-01-06	2020-01-21	Net 15			Carnations:Mini Carnation	Cherry Tessino 60 cm 10 st/bu Fancy	2	5.30	10.60	GST	0.5300	CAD
4008	Harrys Flowers	2020-01-06	2020-01-21	Net 15			Carnations:Mini Carnation	Fellini 60 cm 10 st/bu Fancy	2	5.30	10.60	GST	0.5300	CAD
4008	Harrys Flowers	2020-01-06	2020-01-21	Net 15			Carnations:Mini Carnation	Pigeon 60 cm 10 st/bu Fancy	2	5.30	10.60	GST	0.5300	CAD
4008	Harrys Flowers	2020-01-06	2020-01-21	Net 15			Carnations:Mini Carnation	Pigeon 50 cm 10 st/bu Fancy	2	5.30	10.60	GST	0.5300	CAD
4008	Harrys Flowers	2020-01-06	2020-01-21	Net 15			Flowers & Fillers:Gypsophilia 500gr	Xcelence 75 cm 12 st/bu 250gr	4	16.00	64.00	GST	3.2000	CAD
4008	Harrys Flowers	2020-01-06	2020-01-21	Net 15			Flowers & Fillers:Hydrangea Mini Green	Mini Green Dark 60 cm 1 st/bu Mini	30	1.50	45.00	GST	2.2500	CAD
4008	Harrys Flowers	2020-01-06	2020-01-21	Net 15			Flowers & Fillers:Hydrangea Mini Green	Zion White 60 cm 1 st/bu Select	30	1.50	45.00	GST	2.2500	CAD
4008	Harrys Flowers	2020-01-06	2020-01-21	Net 15			Flowers & Fillers:Leucadendrum	Leucadendrum 65 cm 10 st/bu 	3	8.75	26.25	GST	1.3125	CAD
4008	Harrys Flowers	2020-01-06	2020-01-21	Net 15			Limonium:Statice	Bazzani Purple 70 cm 10 st/bu 	6	8.75	52.50	GST	2.6250	CAD
4008	Harrys Flowers	2020-01-06	2020-01-21	Net 15			Roses:Roses	Confidential 60 cm 25 st/bu 	1	33.75	33.75	GST	1.6875	CAD
4008	Harrys Flowers	2020-01-06	2020-01-21	Net 15			Roses:Roses	Deep Purple 60 cm 25 st/bu 	1	33.75	33.75	GST	1.6875	CAD
4008	Harrys Flowers	2020-01-06	2020-01-21	Net 15			Roses:Roses	Freedom 60 cm 25 st/bu 	4	33.75	135.00	GST	6.7500	CAD
4008	Harrys Flowers	2020-01-06	2020-01-21	Net 15			Roses:Roses	Gotcha 60 cm 25 st/bu 	1	33.75	33.75	GST	1.6875	CAD
4008	Harrys Flowers	2020-01-06	2020-01-21	Net 15			Roses:Roses	Mondial 60 cm 25 st/bu 	3	33.75	101.25	GST	5.0625	CAD
4008	Harrys Flowers	2020-01-06	2020-01-21	Net 15			Roses:Roses	Tiffany 60 cm 25 st/bu 	1	33.75	33.75	GST	1.6875	CAD
4008	John den Haan	2020-01-06	2020-01-21	Net 15			Roses:Roses	Quicksand 60 cm 25 st/bu 	1	41.25	41.25	GST	2.0625	CAD
4008	Maple Ridge Florist	2020-01-06	2020-01-21	Net 15			Roses:Roses	Freedom 60 cm 25 st/bu 	2	33.75	67.50	GST	3.3750	CAD
4008	Maple Ridge Florist	2020-01-06	2020-01-21	Net 15			Roses:Roses	Gotcha 60 cm 25 st/bu 	2	33.75	67.50	GST	3.3750	CAD
4008	Maple Ridge Florist	2020-01-06	2020-01-21	Net 15			Roses:Roses	Kahala  60 cm 25 st/bu 	1	33.75	33.75	GST	1.6875	CAD
4008	Maple Ridge Florist	2020-01-06	2020-01-21	Net 15			Roses:Roses	Mondial 60 cm 25 st/bu 	2	33.75	67.50	GST	3.3750	CAD
4008	Maple Ridge Florist	2020-01-06	2020-01-21	Net 15			Roses:Roses	Playa Blanca  60 cm 25 st/bu 	2	33.75	67.50	GST	3.3750	CAD
4008	Maple Ridge Florist	2020-01-06	2020-01-21	Net 15			Roses:Roses	Quicksand 60 cm 25 st/bu 	1	33.75	33.75	GST	1.6875	CAD
4008	Oak Bay Flower Shop	2020-01-06	2020-01-21	Net 15			Flowers & Fillers:Gypsophilia 500gr	Million Stars 75 cm 12 st/bu 500 gr	3	16.00	48.00	GST	2.4000	CAD
4008	Oak Bay Flower Shop	2020-01-06	2020-01-21	Net 15			Roses:Roses	Brighton 60 cm 25 st/bu 	1	33.75	33.75	GST	1.6875	CAD
4008	Oak Bay Flower Shop	2020-01-06	2020-01-21	Net 15			Roses:Roses	Explorer 60 cm 25 st/bu 	1	33.75	33.75	GST	1.6875	CAD
4008	Oak Bay Flower Shop	2020-01-06	2020-01-21	Net 15			Roses:Roses	Mondial 60 cm 25 st/bu 	1	33.75	33.75	GST	1.6875	CAD
4008	Oak Bay Flower Shop	2020-01-06	2020-01-21	Net 15			Roses:Roses	Shimmer 60 cm 25 st/bu 	1	33.75	33.75	GST	1.6875	CAD
4008	The Flower Factory	2020-01-06	2020-01-21	Net 15			\N	Dusty Miller 50 cm 10 st/bu 	5	16.50	82.50	GST	4.1250	CAD
4008	The Flower Factory	2020-01-06	2020-01-21	Net 15			Carnations:Carnation	Caramel 50 cm 25 st/bu Standard	4	12.00	48.00	GST	2.4000	CAD
4008	The Flower Factory	2020-01-06	2020-01-21	Net 15			Carnations:Carnation	Caramel 50 cm 25 st/bu Standard	4	12.00	48.00	GST	2.4000	CAD
4008	The Flower Factory	2020-01-06	2020-01-21	Net 15			Flowers & Fillers:Ranunculus	Agrogana Coral 40 cm 10 st/bu 	1	19.50	19.50	GST	0.9750	CAD
4008	The Flower Factory	2020-01-06	2020-01-21	Net 15			Flowers & Fillers:Ranunculus	Agrogana Orange 40 cm 10 st/bu 	1	19.50	19.50	GST	0.9750	CAD
4008	The Flower Factory	2020-01-06	2020-01-21	Net 15			Flowers & Fillers:Ranunculus	Agrogana Orange 40 cm 10 st/bu 	1	19.50	19.50	GST	0.9750	CAD
4008	The Flower Factory	2020-01-06	2020-01-21	Net 15			Flowers & Fillers:Ranunculus	Agrogana Peach 40 cm 10 st/bu 	2	19.50	39.00	GST	1.9500	CAD
4008	The Flower Factory	2020-01-06	2020-01-21	Net 15			Flowers & Fillers:Ranunculus	Agrogana Peach 40 cm 10 st/bu 	2	19.50	39.00	GST	1.9500	CAD
4008	The Flower Factory	2020-01-06	2020-01-21	Net 15			Flowers & Fillers:Ranunculus	Agrogana Purple 40 cm 10 st/bu 	1	19.50	19.50	GST	0.9750	CAD
4008	The Flower Factory	2020-01-06	2020-01-21	Net 15			Flowers & Fillers:Ranunculus	Agrogana Purple 40 cm 10 st/bu 	1	19.50	19.50	GST	0.9750	CAD
4008	The Flower Factory	2020-01-06	2020-01-21	Net 15			Flowers & Fillers:Ranunculus	Agrogana Purple 40 cm 10 st/bu 	1	19.50	19.50	GST	0.9750	CAD
4008	The Flower Factory	2020-01-06	2020-01-21	Net 15			Roses:Roses	Andrea 60 cm 25 st/bu 	1	33.75	33.75	GST	1.6875	CAD
4008	The Flower Factory	2020-01-06	2020-01-21	Net 15			Roses:Roses	Grey Knights 60 cm 25 st/bu 	1	33.75	33.75	GST	1.6875	CAD
4008	The Flower Factory	2020-01-06	2020-01-21	Net 15			Roses:Roses	Shimmer 60 cm 25 st/bu 	1	33.75	33.75	GST	1.6875	CAD
4008	The Flower Factory	2020-01-06	2020-01-21	Net 15			Roses:Roses	Shimmer 60 cm 25 st/bu 	2	33.75	67.50	GST	3.3750	CAD
4008	The Flower Factory	2020-01-06	2020-01-21	Net 15			Roses:Roses	Tiffany 60 cm 25 st/bu 	3	33.75	101.25	GST	5.0625	CAD
4008	The Flower Shop in the Village	2020-01-06	2020-01-21	Net 15			Roses:Roses	Brighton 60 cm 25 st/bu 	1	33.75	33.75	GST	1.6875	CAD
4008	The Flower Shop in the Village	2020-01-06	2020-01-21	Net 15			Roses:Roses	Hot Explorer 60 cm 25 st/bu 	1	33.75	33.75	GST	1.6875	CAD
4008	West Coast Floral Growers & Distr.	2020-01-06	2020-01-21	Net 15			Flowers & Fillers:Hydrangea Mini Green	Mini Green Dark 60 cm 1 st/bu Mini	30	1.50	45.00	GST	2.2500	CAD
4008	West Coast Floral Growers & Distr.	2020-01-06	2020-01-21	Net 15			Roses:Roses	Brighton 60 cm 25 st/bu 	3	33.75	101.25	GST	5.0625	CAD
4008	West Coast Floral Growers & Distr.	2020-01-06	2020-01-21	Net 15			Roses:Roses	Confidential 50 cm 25 st/bu 	2	33.75	67.50	GST	3.3750	CAD
4008	West Coast Floral Growers & Distr.	2020-01-06	2020-01-21	Net 15			Roses:Roses	Deep Purple 60 cm 25 st/bu 	2	33.75	67.50	GST	3.3750	CAD
4008	West Coast Floral Growers & Distr.	2020-01-06	2020-01-21	Net 15			Roses:Roses	Explorer 60 cm 25 st/bu 	1	33.75	33.75	GST	1.6875	CAD
4008	West Coast Floral Growers & Distr.	2020-01-06	2020-01-21	Net 15			Roses:Roses	Freedom 60 cm 25 st/bu 	1	33.75	33.75	GST	1.6875	CAD
4008	West Coast Floral Growers & Distr.	2020-01-06	2020-01-21	Net 15			Roses:Roses	Freedom 60 cm 25 st/bu 	3	33.75	101.25	GST	5.0625	CAD
4008	West Coast Floral Growers & Distr.	2020-01-06	2020-01-21	Net 15			Roses:Roses	Freedom 60 cm 25 st/bu 	1	33.75	33.75	GST	1.6875	CAD
4008	West Coast Floral Growers & Distr.	2020-01-06	2020-01-21	Net 15			Roses:Roses	Gotcha 60 cm 25 st/bu 	1	33.75	33.75	GST	1.6875	CAD
4008	West Coast Floral Growers & Distr.	2020-01-06	2020-01-21	Net 15			Roses:Roses	Mondial 60 cm 25 st/bu 	1	33.75	33.75	GST	1.6875	CAD
4008	West Coast Floral Growers & Distr.	2020-01-06	2020-01-21	Net 15			Roses:Roses	Pink Mondial 60 cm 25 st/bu 	1	33.75	33.75	GST	1.6875	CAD
4008	West Coast Floral Growers & Distr.	2020-01-06	2020-01-21	Net 15			Roses:Roses	Playa Blanca  60 cm 25 st/bu 	1	33.75	33.75	GST	1.6875	CAD
4008	West Coast Floral Growers & Distr.	2020-01-06	2020-01-21	Net 15			Roses:Roses	Quicksand 60 cm 25 st/bu 	1	33.75	33.75	GST	1.6875	CAD
4008	Westgate Flower Garden	2020-01-06	2020-01-21	Net 15			Asters:Solidago Golden Glory	Solidago Golden Glory 80 cm 10 st/bu 250gr	3	9.85	29.55	GST	1.4775	CAD
4008	Westgate Flower Garden	2020-01-06	2020-01-21	Net 15			Carnations:Carnation	Amos 60 cm 25 st/bu Standard	2	11.00	22.00	GST	1.1000	CAD
4008	Westgate Flower Garden	2020-01-06	2020-01-21	Net 15			Carnations:Carnation	Bengala 60 cm 25 st/bu Standard	1	11.00	11.00	GST	0.5500	CAD
4008	Westgate Flower Garden	2020-01-06	2020-01-21	Net 15			Limonium:Statice	Bazzani Purple 70 cm 10 st/bu 	2	8.75	17.50	GST	0.8750	CAD
4008	Westgate Flower Garden	2020-01-06	2020-01-21	Net 15			Roses:Roses	Brighton 60 cm 25 st/bu 	1	33.75	33.75	GST	1.6875	CAD
4008	Westgate Flower Garden	2020-01-06	2020-01-21	Net 15			Roses:Roses	Freedom 60 cm 25 st/bu 	1	33.75	33.75	GST	1.6875	CAD
4008	Westgate Flower Garden	2020-01-06	2020-01-21	Net 15			Roses:Spray Roses	Somerset 50 cm 10 st/bu 	2	15.50	31.00	GST	1.5500	CAD
